{
  "database": {
    "url": "mongodb://127.0.0.1/agenda"
  },
  "team": {
    "micro_service_host": "wf-teams-rev.herokuapp.com"
  },
  "workflow": {
    "route": {
      "base": "/timekeeper",
      "test": "/test",

      "createTrigger": "/trigger",
      "getAllTrigger": "/trigger/:triggerId/get",
      "deleteTrigger": "/trigger/:triggerId/delete",
      "updateTrigger": "/trigger/:triggerId/update",
      "pauseTrigger": "/trigger/:triggerId/pause",
      "activateTrigger": "/trigger/:triggerId/active"
    }
  }
}
